<?xml version="1.0" encoding="UTF-8"?>
<svg width="128pt" height="128pt" version="1.1" viewBox="0 0 128 128" xmlns="http://www.w3.org/2000/svg">
 <g fill="#fff">
  <path d="m31.688 105.29v-82.578c0-2.4375 2.75-3.8633 4.7383-2.4609l58.602 41.289c1.6992 1.1992 1.6992 3.7266 0 4.9258l-58.59 41.285c-2 1.3984-4.75-0.023438-4.75-2.4609z"/>
  <path d="m33.562 105.29v-4.3242-11.227-15.461-17.062-16.012-12.312c0-1.9883-0.011719-3.9883 0-5.9766v-0.16406-0.023438-0.16406c0.011719-0.36328 0.011719-0.039062-0.011719 0.039062 0.039063-0.14844 0.074219-0.28906 0.125-0.4375-0.125 0.375 0.0625-0.0625 0.14844-0.19922-0.039063 0.074218-0.26172 0.26172-0.023438 0.050781l0.19922-0.19922c0.22656-0.23828 0.011719 0-0.050781 0.039063 0.074219-0.039063 0.16406-0.10156 0.23828-0.14844 0.25-0.17578 0.011719-0.011719-0.0625 0.011719 0.13672-0.050781 0.26172-0.085938 0.39844-0.125 0.3125-0.10156 0 0-0.074219 0 0.085937 0 0.1875 0 0.28906-0.011719 0.3125-0.023437 0.023438-0.011719-0.0625-0.023437 0.10156 0.011718 0.1875 0.039062 0.28906 0.0625 0.10156 0.023437 0.1875 0.0625 0.28906 0.085937-0.375-0.13672-0.050781-0.011719 0.039063 0.050781 0.0625 0.050782 0.13672 0.085938 0.19922 0.13672 0.38672 0.26172 0.77344 0.55078 1.1641 0.8125 2.5234 1.7734 5.0391 3.5508 7.5625 5.3242 4.0508 2.8633 8.1133 5.7109 12.164 8.5742 4.6133 3.25 9.2383 6.5 13.852 9.7617 4.2734 3.0117 8.5508 6.0234 12.824 9.0391 2.9258 2.0625 5.8516 4.1133 8.7617 6.1758 0.67578 0.47656 1.3516 0.94922 2.0234 1.4258 0.0625 0.050782 0.125 0.085938 0.1875 0.13672 0.16406 0.125-0.13672-0.16406 0 0.011719 0.0625 0.085938 0.14844 0.14844 0.22656 0.22656 0.1875 0.19922-0.13672-0.23828-0.011718 0 0.050781 0.085938 0.10156 0.1875 0.14844 0.27344 0.11328 0.1875 0-0.22656-0.023437-0.023438-0.011719 0.085938 0.074218 0.27344 0.085937 0.36328-0.011719-0.085938 0-0.375-0.023437-0.050782 0 0.10156 0 0.19922-0.011719 0.30078 0-0.25 0.023437-0.19922-0.023437 0.023437-0.011719 0.0625-0.10156 0.36328-0.023438 0.13672 0.085938-0.27344-0.10156 0.1875-0.10156 0.1875-0.023438 0.0625-0.19922 0.28906 0.023437 0-0.0625 0.085938-0.14844 0.14844-0.21094 0.23828-0.16406 0.19922-0.023438 0.039063-0.011719 0.023438-1.3984 1.0859-2.9141 2.0508-4.3633 3.0742-3.4375 2.4258-6.8867 4.8516-10.324 7.2734-4.4766 3.1484-8.9492 6.3125-13.426 9.4609-4.5625 3.2109-9.1133 6.4258-13.676 9.625-3.6875 2.6016-7.3633 5.1875-11.051 7.7891-1.8516 1.3008-3.6992 2.6133-5.5625 3.9141-0.050781 0.039062-0.11328 0.074218-0.16406 0.11328-0.011718 0.011719-0.023437 0.011719-0.039062 0.023437-0.050781 0.023438-0.55078 0.3125-0.32422 0.21094 0.1875-0.085938-0.33594 0.074218-0.41406 0.10156-0.22656 0.074219 0.41406 0.039063 0-0.011718-0.085938-0.011719-0.19922-0.011719-0.28906-0.011719 0.074219 0 0.39844 0.10156 0.074219 0-0.085937-0.023438-0.1875-0.050781-0.27344-0.074219-0.13672-0.039062-0.22656-0.16406 0.0625 0.023438-0.0625-0.050782-0.17578-0.10156-0.25-0.13672-0.27344-0.125-0.039063-0.011719 0.039062 0.050781-0.074219-0.0625-0.13672-0.125-0.21094-0.1875-0.0625-0.0625-0.125-0.13672-0.1875-0.21094 0.26172 0.26172 0.085938 0.13672 0.039063 0.039063-0.039063-0.085937-0.10156-0.17578-0.13672-0.25 0.1875 0.35156 0.039063 0.085937 0-0.039063-0.011718-0.0625-0.10156-0.375-0.050781-0.125 0.089844 0.29297 0.015625-0.19531 0.015625-0.21875-0.023438-0.97656-0.85156-1.9258-1.875-1.875-1 0.050782-1.8984 0.82422-1.875 1.875 0.0625 2.3125 1.6641 4.4141 4 4.8008 1.2734 0.21094 2.5508-0.023438 3.625-0.76172 0.53906-0.375 1.0742-0.75 1.6133-1.1367 2.8008-1.9766 5.6016-3.9492 8.3984-5.9141 4.25-2.9883 8.5-5.9883 12.738-8.9766 4.7266-3.3242 9.4375-6.6484 14.164-9.9766 4.1641-2.9375 8.3242-5.8633 12.488-8.8008 2.625-1.8516 5.25-3.6992 7.875-5.5508 0.41406-0.28906 0.83594-0.58594 1.25-0.875 1.75-1.2617 2.6758-3.4258 1.9883-5.5508-0.375-1.1484-1.1133-1.9883-2.0742-2.6758-1.7383-1.2383-3.4883-2.4492-5.2266-3.6875-3.6758-2.5859-7.3516-5.1758-11.023-7.7617-4.6133-3.25-9.2266-6.5-13.824-9.7383-4.5625-3.2109-9.125-6.4258-13.688-9.6484-3.5-2.4609-6.9883-4.9258-10.488-7.3867-1.4141-1-2.8125-2.0391-4.25-3-1.8867-1.2617-4.375-0.96094-6.0234 0.52344-1.0234 0.91406-1.5117 2.2617-1.5391 3.6133-0.011718 0.55078 0 1.1016 0 1.6484v9.0508 14.488 17.113 16.938 13.938 8.25 1.1016c0 0.97656 0.86328 1.9258 1.875 1.875 1.0195-0.074219 1.8711-0.85156 1.8711-1.8984z"/>
 </g>
</svg>
